…
``` r
  coach_data <- "https://afltables.com/afl/stats/coaches/Mick_Malthouse.html" %>% 
    read_html() %>% 
    html_table(header = FALSE) %>%
    .[[1]] %>%
    filter(str_detect(X1, "\\d{4}")) %>%
    select(1:2) %>% 
    setNames(c("year", "team"))

coach_data
```

    ## # A tibble: 31 × 2
    ##    year  team      
    ##    <chr> <chr>     
    ##  1 1984  Footscray 
    ##  2 1985  Footscray 
    ##  3 1986  Footscray 
    ##  4 1987  Footscray 
    ##  5 1988  Footscray 
    ##  6 1989  Footscray 
    ##  7 1990  West Coast
    ##  8 1991  West Coast
    ##  9 1992  West Coast
    ## 10 1993  West Coast
    ## # … with 21 more rows

``` r
  team_count <- coach_data %>% 
    mutate(from = lag(team, default = "None"), 
           to = team,
           year = as.numeric(year),
           flag_same_club = ifelse(from == to, 1, 0),
           flag_gap_year = ifelse(year - lag(year) > 1, 1, 0))

team_count
```

    ## # A tibble: 31 × 6
    ##     year team       from       to         flag_same_club flag_gap_year
    ##    <dbl> <chr>      <chr>      <chr>               <dbl>         <dbl>
    ##  1  1984 Footscray  None       Footscray               0            NA
    ##  2  1985 Footscray  Footscray  Footscray               1             0
    ##  3  1986 Footscray  Footscray  Footscray               1             0
    ##  4  1987 Footscray  Footscray  Footscray               1             0
    ##  5  1988 Footscray  Footscray  Footscray               1             0
    ##  6  1989 Footscray  Footscray  Footscray               1             0
    ##  7  1990 West Coast Footscray  West Coast              0             0
    ##  8  1991 West Coast West Coast West Coast              1             0
    ##  9  1992 West Coast West Coast West Coast              1             0
    ## 10  1993 West Coast West Coast West Coast              1             0
    ## # … with 21 more rows
…
``` r
  coach_data <- "https://afltables.com/afl/stats/coaches/Jock_McHale.html" %>% 
    read_html() %>% 
    html_table(header = FALSE) %>%
    .[[1]] %>%
    filter(str_detect(X1, "\\d{4}")) %>%
    select(1:2) %>% 
    setNames(c("year", "team"))

coach_data
```

    ## # A tibble: 38 × 2
    ##    year  team       
    ##    <chr> <chr>      
    ##  1 1912  Collingwood
    ##  2 1913  Collingwood
    ##  3 1914  Collingwood
    ##  4 1915  Collingwood
    ##  5 1916  Collingwood
    ##  6 1917  Collingwood
    ##  7 1918  Collingwood
    ##  8 1919  Collingwood
    ##  9 1920  Collingwood
    ## 10 1921  Collingwood
    ## # … with 28 more rows

``` r
  team_count <- coach_data %>% 
    mutate(from = lag(team, default = "None"), 
           to = team,
           year = as.numeric(year),
           flag_same_club = ifelse(from == to, 1, 0),
           flag_gap_year = ifelse(year - lag(year) > 1, 1, 0))

team_count
```

    ## # A tibble: 38 × 6
    ##     year team        from        to          flag_same_club flag_gap_year
    ##    <dbl> <chr>       <chr>       <chr>                <dbl>         <dbl>
    ##  1  1912 Collingwood None        Collingwood              0            NA
    ##  2  1913 Collingwood Collingwood Collingwood              1             0
    ##  3  1914 Collingwood Collingwood Collingwood              1             0
    ##  4  1915 Collingwood Collingwood Collingwood              1             0
    ##  5  1916 Collingwood Collingwood Collingwood              1             0
    ##  6  1917 Collingwood Collingwood Collingwood              1             0
    ##  7  1918 Collingwood Collingwood Collingwood              1             0
    ##  8  1919 Collingwood Collingwood Collingwood              1             0
    ##  9  1920 Collingwood Collingwood Collingwood              1             0
    ## 10  1921 Collingwood Collingwood Collingwood              1             0
    ## # … with 28 more rows
…
Coached 3 clubs, the first continuously, the second with a break.

``` r
  coach_data <- "https://afltables.com/afl/stats/coaches/Allan_Jeans.html" %>% 
    read_html() %>% 
    html_table(header = FALSE) %>%
    .[[1]] %>%
    filter(str_detect(X1, "\\d{4}")) %>%
    select(1:2) %>% 
    setNames(c("year", "team"))

coach_data
```

    ## # A tibble: 26 × 2
    ##    year  team    
    ##    <chr> <chr>   
    ##  1 1961  St Kilda
    ##  2 1962  St Kilda
    ##  3 1963  St Kilda
    ##  4 1964  St Kilda
    ##  5 1965  St Kilda
    ##  6 1966  St Kilda
    ##  7 1967  St Kilda
    ##  8 1968  St Kilda
    ##  9 1969  St Kilda
    ## 10 1970  St Kilda
    ## # … with 16 more rows

``` r
  team_count <- coach_data %>% 
    mutate(from = lag(team, default = "None"), 
           to = team,
           year = as.numeric(year),
           flag_same_club = ifelse(from == to, 1, 0),
           flag_gap_year = ifelse(year - lag(year) > 1, 1, 0))

team_count
```

    ## # A tibble: 26 × 6
    ##     year team     from     to       flag_same_club flag_gap_year
    ##    <dbl> <chr>    <chr>    <chr>             <dbl>         <dbl>
    ##  1  1961 St Kilda None     St Kilda              0            NA
    ##  2  1962 St Kilda St Kilda St Kilda              1             0
    ##  3  1963 St Kilda St Kilda St Kilda              1             0
    ##  4  1964 St Kilda St Kilda St Kilda              1             0
    ##  5  1965 St Kilda St Kilda St Kilda              1             0
    ##  6  1966 St Kilda St Kilda St Kilda              1             0
    ##  7  1967 St Kilda St Kilda St Kilda              1             0
    ##  8  1968 St Kilda St Kilda St Kilda              1             0
    ##  9  1969 St Kilda St Kilda St Kilda              1             0
    ## 10  1970 St Kilda St Kilda St Kilda              1             0
    ## # … with 16 more rows
…
Coached 3 clubs, returning to Carlton after a spell at Fitzroy.

``` r
  coach_data <- "https://afltables.com/afl/stats/coaches/David_Parkin.html" %>% 
    read_html() %>% 
    html_table(header = FALSE) %>%
    .[[1]] %>%
    filter(str_detect(X1, "\\d{4}")) %>%
    select(1:2) %>% 
    setNames(c("year", "team"))

coach_data
```

    ## # A tibble: 22 × 2
    ##    year  team    
    ##    <chr> <chr>   
    ##  1 1977  Hawthorn
    ##  2 1978  Hawthorn
    ##  3 1979  Hawthorn
    ##  4 1980  Hawthorn
    ##  5 1981  Carlton 
    ##  6 1982  Carlton 
    ##  7 1983  Carlton 
    ##  8 1984  Carlton 
    ##  9 1985  Carlton 
    ## 10 1986  Fitzroy 
    ## # … with 12 more rows

``` r
  team_count <- coach_data %>% 
    mutate(from = lag(team, default = "None"), 
           to = team,
           year = as.numeric(year),
           flag_same_club = ifelse(from == to, 1, 0),
           flag_gap_year = ifelse(year - lag(year) > 1, 1, 0))

team_count
```

    ## # A tibble: 22 × 6
    ##     year team     from     to       flag_same_club flag_gap_year
    ##    <dbl> <chr>    <chr>    <chr>             <dbl>         <dbl>
    ##  1  1977 Hawthorn None     Hawthorn              0            NA
    ##  2  1978 Hawthorn Hawthorn Hawthorn              1             0
    ##  3  1979 Hawthorn Hawthorn Hawthorn              1             0
    ##  4  1980 Hawthorn Hawthorn Hawthorn              1             0
    ##  5  1981 Carlton  Hawthorn Carlton               0             0
    ##  6  1982 Carlton  Carlton  Carlton               1             0
    ##  7  1983 Carlton  Carlton  Carlton               1             0
    ##  8  1984 Carlton  Carlton  Carlton               1             0
    ##  9  1985 Carlton  Carlton  Carlton               1             0
    ## 10  1986 Fitzroy  Carlton  Fitzroy               0             0
    ## # … with 12 more rows
…
